<svg xmlns="http://www.w3.org/2000/svg" width="38.55" height="50.454" viewBox="0 0 38.55 50.454">
  <g id="Group_983" data-name="Group 983" transform="translate(0.75 0.75)">
    <path id="Path_1986" data-name="Path 1986" d="M328.733,69.56l-.194-.1a.972.972,0,0,0-1.4.76,3.76,3.76,0,0,0,2.195,4.147c1.465,4.664,5.263,9.732,9.718,9.732s8.251-5.066,9.717-9.729a3.76,3.76,0,0,0,2.21-4.153.971.971,0,0,0-1.4-.76l-.208.1" transform="translate(-320.521 -53.661)" fill="none" stroke="#024594" stroke-linecap="round" stroke-linejoin="round" stroke-width="1.5"/>
    <path id="Path_1987" data-name="Path 1987" d="M350.342,65.231a6.957,6.957,0,0,1-1.644-3.084,9.465,9.465,0,0,0-1.442-3.234c-4.5,2.852-12.694-2.169-14.258,0a9.475,9.475,0,0,0-1.442,3.234,6.957,6.957,0,0,1-1.644,3.084" transform="translate(-321.599 -49.441)" fill="none" stroke="#024594" stroke-linecap="round" stroke-linejoin="round" stroke-width="1.5"/>
    <path id="Path_1988" data-name="Path 1988" d="M325.688,94.941c-2.958.617-7.409,2.474-8.864,8.053a13.75,13.75,0,0,0-.4,3.475v4.8" transform="translate(-316.428 -63.472)" fill="none" stroke="#f68c42" stroke-linecap="round" stroke-linejoin="round" stroke-width="1.5"/>
    <path id="Path_1989" data-name="Path 1989" d="M335.506,87.508h0a8.935,8.935,0,0,1-.721,3.545" transform="translate(-323.468 -60.622)" fill="none" stroke="#024594" stroke-linecap="round" stroke-linejoin="round" stroke-width="1.5"/>
    <line id="Line_80" data-name="Line 80" y2="5.38" transform="translate(7.143 42.415)" fill="none" stroke="#f68c42" stroke-linecap="round" stroke-linejoin="round" stroke-width="1.5"/>
    <path id="Path_1990" data-name="Path 1990" d="M340.728,97.609c-5.079,0-7.451-5.083-7.451-5.083s-.306-.315-1.829.467c0,0,.159,5.711,5.518,7.706a8.168,8.168,0,0,1,3.758-2.816" transform="translate(-322.188 -62.522)" fill="none" stroke="#f68c42" stroke-linecap="round" stroke-linejoin="round" stroke-width="1.5"/>
    <path id="Path_1991" data-name="Path 1991" d="M341.189,105.42l1.677,1.387h1.578" transform="translate(-325.924 -67.491)" fill="none" stroke="#f68c42" stroke-linecap="round" stroke-linejoin="round" stroke-width="1.5"/>
    <path id="Path_1992" data-name="Path 1992" d="M343.834,107.669l-1.581,6.2L344.783,117" transform="translate(-326.331 -68.353)" fill="none" stroke="#f68c42" stroke-linecap="round" stroke-linejoin="round" stroke-width="1.5"/>
    <path id="Path_1993" data-name="Path 1993" d="M328.018,59.594s-1.8-9.242,3.129-11.589h0a5.961,5.961,0,0,1,3.387-3.25,13.472,13.472,0,0,1,4.744-.857" transform="translate(-320.75 -43.898)" fill="none" stroke="#024594" stroke-linecap="round" stroke-linejoin="round" stroke-width="1.5"/>
    <path id="Path_1994" data-name="Path 1994" d="M357.788,59.594s1.8-9.242-3.129-11.589h0a5.961,5.961,0,0,0-3.387-3.25,13.469,13.469,0,0,0-4.743-.857" transform="translate(-327.971 -43.898)" fill="none" stroke="#024594" stroke-linecap="round" stroke-linejoin="round" stroke-width="1.5"/>
    <path id="Path_1995" data-name="Path 1995" d="M361.5,94.941c2.957.617,7.409,2.474,8.864,8.053a13.781,13.781,0,0,1,.4,3.475v4.8" transform="translate(-333.714 -63.472)" fill="none" stroke="#f68c42" stroke-linecap="round" stroke-linejoin="round" stroke-width="1.5"/>
    <path id="Path_1996" data-name="Path 1996" d="M357,87.508h0a8.936,8.936,0,0,0,.721,3.545" transform="translate(-331.985 -60.622)" fill="none" stroke="#024594" stroke-linecap="round" stroke-linejoin="round" stroke-width="1.5"/>
    <line id="Line_81" data-name="Line 81" y2="5.398" transform="translate(29.907 42.415)" fill="none" stroke="#f68c42" stroke-linecap="round" stroke-linejoin="round" stroke-width="1.5"/>
    <path id="Path_1997" data-name="Path 1997" d="M346.451,97.609c5.079,0,7.451-5.083,7.451-5.083s.306-.315,1.829.467c0,0-.16,5.711-5.518,7.706a8.167,8.167,0,0,0-3.758-2.816" transform="translate(-327.941 -62.522)" fill="none" stroke="#f68c42" stroke-linecap="round" stroke-linejoin="round" stroke-width="1.5"/>
    <path id="Path_1998" data-name="Path 1998" d="M349.737,105.42l-1.677,1.387h-1.578" transform="translate(-327.953 -67.491)" fill="none" stroke="#f68c42" stroke-linecap="round" stroke-linejoin="round" stroke-width="1.5"/>
    <path id="Path_1999" data-name="Path 1999" d="M347.543,107.669l1.581,6.2L346.594,117" transform="translate(-327.996 -68.353)" fill="none" stroke="#f68c42" stroke-linecap="round" stroke-linejoin="round" stroke-width="1.5"/>
  </g>
</svg>
