<svg xmlns="http://www.w3.org/2000/svg" width="58.19" height="58" viewBox="0 0 58.19 58">
  <g id="hospital_bed-hospitalization" data-name="hospital bed-hospitalization" transform="translate(-519 -215)">
    <g id="Group_892" data-name="Group 892" transform="translate(522.719 234.126)">
      <path id="Path_1839" data-name="Path 1839" d="M533.875,246.875l-1.282-1.281a1.813,1.813,0,0,0-1.281-.531h-2.875l-3.411-1.706A3.667,3.667,0,0,1,523,240.078v-.412A3.666,3.666,0,0,1,526.666,236h0a3.665,3.665,0,0,1,1.64.387l2.851,1.426,1.813,2.719h.906" transform="translate(-523 -236)" fill="none" stroke="#024594" stroke-linecap="round" stroke-linejoin="round" stroke-width="2"/>
      <path id="Path_1840" data-name="Path 1840" d="M577.158,246.407l-1.075-3.761a2.719,2.719,0,0,0-3.33-1.876l-7.377,2.012L540,240.969V245.5" transform="translate(-524.593 -236.438)" fill="none" stroke="#024594" stroke-linecap="round" stroke-linejoin="round" stroke-width="2"/>
    </g>
    <g id="Group_894" data-name="Group 894" transform="translate(520 240.619)">
      <path id="Path_1841" data-name="Path 1841" d="M520,258.422h56.19v-5.438a1.812,1.812,0,0,0-1.813-1.813H541.489a10.869,10.869,0,0,1-4.676-1.057l-14.221-6.772A1.813,1.813,0,0,0,520,244.98v2.295a1.812,1.812,0,0,0,1.077,1.657l7.08,3.147h-6.344A1.812,1.812,0,0,0,520,253.891Z" transform="translate(-520 -243.165)" fill="none" stroke="#024594" stroke-linecap="round" stroke-linejoin="round" stroke-width="2"/>
      <g id="Group_893" data-name="Group 893" transform="translate(4.41 18.602)">
        <ellipse id="Ellipse_12" data-name="Ellipse 12" cx="5" cy="4.5" rx="5" ry="4.5" transform="translate(37.59 3.778)" fill="none" stroke="#024594" stroke-linecap="round" stroke-linejoin="round" stroke-width="2"/>
        <circle id="Ellipse_13" data-name="Ellipse 13" cx="4.5" cy="4.5" r="4.5" transform="translate(-0.41 3.778)" fill="none" stroke="#024594" stroke-linecap="round" stroke-linejoin="round" stroke-width="2"/>
        <path id="Path_1842" data-name="Path 1842" d="M548,264l2.719.906,2.719-.906" transform="translate(-527.035 -263.72)" fill="none" stroke="#024594" stroke-linecap="round" stroke-linejoin="round" stroke-width="2"/>
        <path id="Path_1843" data-name="Path 1843" d="M559.126,275.625,550.063,272,541,275.625" transform="translate(-526.379 -264.47)" fill="none" stroke="#024594" stroke-linecap="round" stroke-linejoin="round" stroke-width="2"/>
        <line id="Line_61" data-name="Line 61" x1="7" y2="3" transform="translate(8.59 3.778)" fill="none" stroke="#024594" stroke-linecap="round" stroke-linejoin="round" stroke-width="2"/>
        <line id="Line_62" data-name="Line 62" x2="7" y2="3" transform="translate(30.59 3.778)" fill="none" stroke="#024594" stroke-linecap="round" stroke-linejoin="round" stroke-width="2"/>
        <line id="Line_63" data-name="Line 63" x2="11" y2="5" transform="translate(8.59 -0.222)" fill="none" stroke="#024594" stroke-linecap="round" stroke-linejoin="round" stroke-width="2"/>
        <line id="Line_64" data-name="Line 64" y1="5" x2="10" transform="translate(28.59 -0.222)" fill="none" stroke="#024594" stroke-linecap="round" stroke-linejoin="round" stroke-width="2"/>
      </g>
    </g>
    <g id="Group_895" data-name="Group 895" transform="translate(528.157 216)">
      <path id="Path_1844" data-name="Path 1844" d="M540.782,216v.906a1.812,1.812,0,0,1-1.813,1.813h0a1.812,1.812,0,0,1-1.813-1.813V216h-5.438A2.719,2.719,0,0,0,529,218.719V230.5" transform="translate(-529 -216)" fill="none" stroke="#f68c42" stroke-linecap="round" stroke-linejoin="round" stroke-width="2"/>
      <line id="Line_65" data-name="Line 65" y1="3" transform="translate(10.843 3)" fill="none" stroke="#f68c42" stroke-linecap="round" stroke-linejoin="round" stroke-width="2"/>
      <line id="Line_66" data-name="Line 66" y2="4" transform="translate(10.843 15)" fill="none" stroke="#f68c42" stroke-linecap="round" stroke-linejoin="round" stroke-width="2"/>
      <path id="Rectangle_1618" data-name="Rectangle 1618" d="M1,0H7A1,1,0,0,1,8,1V6A3,3,0,0,1,5,9H3A3,3,0,0,1,0,6V1A1,1,0,0,1,1,0Z" transform="translate(5.843 6)" fill="none" stroke="#f68c42" stroke-linecap="round" stroke-linejoin="round" stroke-width="2"/>
    </g>
  </g>
</svg>
