<svg xmlns="http://www.w3.org/2000/svg" width="14.268" height="12.842" viewBox="0 0 14.268 12.842">
  <g id="Icon_feather-rotate-cw" data-name="Icon feather-rotate-cw" transform="translate(-3.85 -3.757)">
    <path id="Path_88" data-name="Path 88" d="M29.33,6V9.83H25.5" transform="translate(-12.06 -0.86)" fill="none" stroke="#f58b41" stroke-linecap="round" stroke-linejoin="round" stroke-width="1.2"/>
    <path id="Path_89" data-name="Path 89" d="M15.668,12.162a5.745,5.745,0,1,1-1.353-5.975L17.27,8.97" fill="none" stroke="#f58b41" stroke-linecap="round" stroke-linejoin="round" stroke-width="1.2"/>
  </g>
</svg>
