<svg xmlns="http://www.w3.org/2000/svg" width="22.659" height="18.389" viewBox="0 0 22.659 18.389">
  <g id="Arrow" transform="translate(1.414 0.707)">
    <path id="Path_1819" data-name="Path 1819" d="M251.362,767H230.118" transform="translate(-230.118 -758.548)" fill="#fff" stroke="#024594" stroke-width="2"/>
    <path id="Path_1820" data-name="Path 1820" d="M256.719,755.325l-8.487,8.487,8.487,8.487" transform="translate(-248.231 -755.325)" fill="none" stroke="#024594" stroke-width="2"/>
  </g>
</svg>
